Energy? Angle?,5,10,15,20,30,50,80,125,200,400
72.4,97.6,95.3,93,90.8,86.5,78.5,67.7,53.9,35.7,8.51
91.5,97.3,94.7,92.2,89.7,85,76.2,64.5,49.6,30.5,5.23
108.5,97.2,94.4,91.7,89.1,84.1,74.8,62.5,47,27.3,3.74
151.1,97.1,94.3,91.6,89,83.9,74.4,61.8,45.6,24,1.96
183.3,97.2,94.6,91.9,89.4,84.5,75.2,62.6,45.7,21.7,1.13
277,97.3,94.8,92.2,89.7,84.9,75.6,61.9,40.3,7.49,2.26E-01
392.4,97.4,94.8,92.2,89.7,84.8,74.7,57.8,20,1.38,5.40E-02
452.2,97.4,94.9,92.4,89.9,84.9,74.5,54.5,9.01,0.7,2.98E-02
524.9,97.3,94.7,92.2,89.6,84.4,72.8,45.3,3.58,3.41E-01,1.56E-02
572.8,97.3,94.7,92.1,89.5,84.1,71.6,35.2,2.16,2.26E-01,1.07E-02
676.8,97.3,94.6,91.9,89.2,83.3,67.7,10.4,0.84,0.1,4.91E-03
776.2,96.9,93.9,90.8,87.7,80.6,55.8,3.3,3.59E-01,4.59E-02,2.34E-03
851.5,96.3,92.6,88.8,84.7,75.2,25.9,1.34,1.69E-01,2.26E-02,1.18E-03
929.7,71.4,50.7,35.7,24.8,11.6,2.62,0.45,7.64E-02,0.01,6.18E-04
1011.7,87,75.5,65,55.4,38.1,11.9,1.5,2.09E-01,2.85E-02,1.49E-03
1253.6,89.8,80.3,71.2,62.3,44,9.37,8.80E-01,1.21E-01,1.66E-02,8.74E-04
1486.7,91.2,82.9,74.5,65.8,44.9,4.8,4.60E-01,6.57E-02,0.01,4.85E-04
1740,92.1,84.3,76.1,66.9,39.1,2.19,2.37E-01,3.51E-02,4.97E-03,2.65E-04
2042.4,92.8,85.4,77.2,66.6,21,9.96E-01,1.19E-01,1.83E-02,2.61E-03,1.40E-04
2622.4,93.7,86.7,77.3,58.1,3.94,3.10E-01,4.11E-02,6.50E-03,9.42E-04,5.08E-05
2984.3,94.1,87.2,76.1,32.1,1.9,1.73E-01,2.38E-02,3.80E-03,5.53E-04,2.99E-05
3691.7,94.7,87.4,62.3,5.62,6.48E-01,6.82E-02,9.72E-03,1.57E-03,2.30E-04,1.25E-05
4510.8,95.1,86.4,9.99,1.73,2.54E-01,2.89E-02,4.21E-03,6.87E-04,1.01E-04,5.48E-06
4952.2,95.3,84.5,5.15,1.07E+00,1.67E-01,1.94E-02,2.85E-03,4.67E-04,6.87E-05,3.73E-06
5414.7,95.5,78.9,2.98,6.85E-01,1.12E-01,1.33E-02,1.97E-03,3.23E-04,4.75E-05,2.58E-06
5898.8,95.6,37.2,1.84,4.54E-01,7.71E-02,9.28E-03,1.38E-03,2.26E-04,3.33E-05,1.81E-06
6930.3,95.7,7.54,7.94E-01,2.14E-01,3.81E-02,4.68E-03,6.99E-04,1.15E-04,1.70E-05,9.23E-07
7478.2,95.7,4.44,5.42E-01,1.50E-01,2.72E-02,3.37E-03,5.05E-04,8.32E-05,1.23E-05,6.68E-07
8047.8,95.5,2.76,3.74E-01,1.06E-01,1.95E-02,2.43E-03,3.64E-04,6.01E-05,8.87E-06,4.83E-07
9886.4,66.5,1.01E+00,1.60E-01,4.72E-02,8.87E-03,1.12E-03,1.69E-04,2.79E-05,4.12E-06,2.24E-07
14988,5.35,1.71E-01,3.09E-02,9.47E-03,1.83E-03,2.34E-04,3.54E-05,5.85E-06,8.65E-07,4.71E-08
17479,2.2,8.90E-02,1.64E-02,5.09E-03,9.88E-04,1.27E-04,1.92E-05,3.18E-06,4.70E-07,2.55E-08
21177,8.33E-01,3.97E-02,7.51E-03,2.34E-03,4.57E-04,5.87E-05,8.90E-06,1.47E-06,2.18E-07,1.19E-08
25271,3.65E-01,1.91E-02,3.65E-03,1.14E-03,2.24E-04,2.88E-05,4.37E-06,7.24E-07,1.07E-07,5.86E-09
29779,1.76E-01,9.70E-03,1.87E-03,5.88E-04,1.16E-04,1.49E-05,2.26E-06,3.74E-07,5.53E-08,3.00E-09
